{

    "smoke": {
        "request_kwargs": { 
            "url": "api/categorical/topic/fruits_and_vegetables/"
        },
        "expected": {
            "status_code": 200
        }
    },

    "topic GET details": {
        "request_kwargs": { 
            "url": "api/categorical/topic/fruits_and_vegetables/"
        },
        "expected": {
            "status_code": 200,
            "json": {
                "fruits": {
                    "singular": "fruit",
                    "truth": {
                        "E": [
                            "vegetables"
                        ],
                        "A": [],
                        "I": [
                            "peppers",
                            "beans",
                            "oranges",
                            "apples",
                            "cucumbers",
                            "pumpkins",
                            "blueberries",
                            "berries"
                        ],
                        "O": [
                            "beans",
                            "apples",
                            "cucumbers",
                            "oranges",
                            "berries",
                            "pumpkins",
                            "vegetables",
                            "peppers",
                            "blueberries"
                        ]
                    },
                    "plural": "fruits"
                },
                "vegetables": {
                    "singular": "vegetable",
                    "truth": {
                        "O": [
                            "fruits",
                            "berries",
                            "blueberries",
                            "peppers",
                            "beans",
                            "oranges",
                            "apples",
                            "cucumbers",
                            "pumpkins"
                        ],
                        "A": [],
                        "E": [
                            "fruits",
                            "berries",
                            "blueberries",
                            "peppers",
                            "beans",
                            "oranges",
                            "apples",
                            "cucumbers",
                            "pumpkins"
                        ],
                        "I": []
                    },
                    "plural": "vegetables"
                },
                "berries": {
                    "singular": "berry",
                    "truth": {
                        "A": [
                            "fruits"
                        ],
                        "E": [
                            "peppers",
                            "beans",
                            "oranges",
                            "apples",
                            "cucumbers",
                            "pumpkins",
                            "vegetables"
                        ],
                        "I": [
                            "blueberries",
                            "fruits"
                        ],
                        "O": [
                            "beans",
                            "apples",
                            "cucumbers",
                            "oranges",
                            "pumpkins",
                            "vegetables",
                            "peppers"
                        ]
                    },
                    "plural": "berries"
                },
                "blueberries": {
                    "singular": "blueberry",
                    "truth": {
                        "A": [
                            "fruits",
                            "berries"
                        ],
                        "I": [
                            "berries",
                            "fruits"
                        ],
                        "E": [
                            "vegetables",
                            "peppers",
                            "beans",
                            "oranges",
                            "apples",
                            "cucumbers",
                            "pumpkins"
                        ],
                        "O": [
                            "beans",
                            "cucumbers",
                            "apples",
                            "oranges",
                            "pumpkins",
                            "vegetables",
                            "peppers"
                        ]
                    },
                    "plural": "blueberries"
                },
                "peppers": {
                    "singular": "pepper",
                    "truth": {
                        "A": [
                            "fruits"
                        ],
                        "E": [
                            "beans",
                            "berries",
                            "oranges",
                            "apples",
                            "cucumbers",
                            "pumpkins",
                            "blueberries",
                            "vegetables"
                        ],
                        "I": [
                            "fruits"
                        ],
                        "O": [
                            "vegetables",
                            "beans",
                            "berries",
                            "oranges",
                            "apples",
                            "cucumbers",
                            "pumpkins",
                            "blueberries"
                        ]
                    },
                    "plural": "peppers"
                },
                "beans": {
                    "singular": "bean",
                    "truth": {
                        "A": [
                            "fruits"
                        ],
                        "E": [
                            "peppers",
                            "berries",
                            "oranges",
                            "apples",
                            "cucumbers",
                            "pumpkins",
                            "blueberries",
                            "vegetables"
                        ],
                        "I": [
                            "fruits"
                        ],
                        "O": [
                            "vegetables",
                            "peppers",
                            "berries",
                            "oranges",
                            "apples",
                            "cucumbers",
                            "pumpkins",
                            "blueberries"
                        ]
                    },
                    "plural": "beans"
                },
                "oranges": {
                    "singular": "orange",
                    "truth": {
                        "A": [
                            "fruits"
                        ],
                        "E": [
                            "berries",
                            "peppers",
                            "beans",
                            "apples",
                            "cucumbers",
                            "pumpkins",
                            "blueberries",
                            "vegetables"
                        ],
                        "I": [
                            "fruits"
                        ],
                        "O": [
                            "vegetables",
                            "berries",
                            "peppers",
                            "beans",
                            "apples",
                            "cucumbers",
                            "pumpkins",
                            "blueberries"
                        ]
                    },
                    "plural": "oranges"
                },
                "apples": {
                    "singular": "apple",
                    "truth": {
                        "A": [
                            "fruits"
                        ],
                        "E": [
                            "berries",
                            "peppers",
                            "beans",
                            "cucumbers",
                            "pumpkins",
                            "oranges",
                            "blueberries",
                            "vegetables"
                        ],
                        "I": [
                            "fruits"
                        ],
                        "O": [
                            "vegetables",
                            "berries",
                            "peppers",
                            "beans",
                            "cucumbers",
                            "pumpkins",
                            "oranges",
                            "blueberries"
                        ]
                    },
                    "plural": "apples"
                },
                "cucumbers": {
                    "singular": "cucumber",
                    "truth": {
                        "A": [
                            "fruits"
                        ],
                        "E": [
                            "berries",
                            "peppers",
                            "beans",
                            "pumpkins",
                            "oranges",
                            "apples",
                            "blueberries",
                            "vegetables"
                        ],
                        "I": [
                            "fruits"
                        ],
                        "O": [
                            "vegetables",
                            "berries",
                            "peppers",
                            "beans",
                            "pumpkins",
                            "oranges",
                            "apples",
                            "blueberries"
                        ]
                    },
                    "plural": "cucumbers"
                },
                "pumpkins": {
                    "singular": "pumpkin",
                    "truth": {
                        "A": [
                            "fruits"
                        ],
                        "E": [
                            "berries",
                            "peppers",
                            "beans",
                            "oranges",
                            "apples",
                            "cucumbers",
                            "blueberries",
                            "vegetables"
                        ],
                        "I": [
                            "fruits"
                        ],
                        "O": [
                            "vegetables",
                            "berries",
                            "peppers",
                            "beans",
                            "oranges",
                            "apples",
                            "cucumbers",
                            "blueberries"
                        ]
                    },
                    "plural": "pumpkins"
                }
            }

        }
    }

}
